TEXT Mining Fianance Book
…
chapter_lda  <- LDA(chapters_dtm, k = 4,method= "Gibbs",
                    control = list(seed = 5566))

chapter_topics <- tidy(chapter_lda, matrix = "beta")

top_terms <- chapter_topics %>%
  group_by(topic) %>%
  slice_max(beta, n = 8) %>% 
  ungroup() %>%
  arrange(topic, -beta)

top_terms

## # A tibble: 33 x 3
##    topic term          beta
##    <int> <chr>        <dbl>
##  1     1 investors  0.0167 
##  2     1 people     0.0161 
##  3     1 time       0.0139 
##  4     1 money      0.00885
##  5     1 capital    0.00858
##  6     1 crisis     0.00627
##  7     1 prices     0.00613
##  8     1 extreme    0.00613
##  9     1 psychology 0.00613
## 10     2 price      0.0226 
## # ... with 23 more rows
…
lda_gamma <- tidy(chapter_lda, matrix = "gamma")
lda_gamma

## # A tibble: 84 x 3
##    document topic  gamma
##    <chr>    <int>  <dbl>
##  1 5            1 0.0922
##  2 6            1 0.239 
##  3 7            1 0.0637
##  4 2            1 0.0783
##  5 4            1 0.276 
##  6 3            1 0.0894
##  7 9            1 0.583 
##  8 10           1 0.488 
##  9 19           1 0.0340
## 10 14           1 0.192 
## # ... with 74 more rows
…
